{
  "PLAYER_HEAD": 1,
  "SHULKER_SHELL": 50,
  "LILY_PAD": 2,
  "POTTED_RED_TULIP": 1,
  "PUMPKIN_SEEDS": 2,
  "DARK_OAK_SAPLING": 10,
  "BIRCH_LOG": 24,
  "RABBIT_SPAWN_EGG": 1000,
  "JUNGLE_SAPLING": 12,
  "NETHER_PORTAL": 1000,
  "MUSIC_DISC_WARD": 500,
  "ENDERMAN_SPAWN_EGG": 1000,
  "PHANTOM_SPAWN_EGG": 1000,
  "EMERALD_ORE": 500,
  "TALL_GRASS": 1,
  "END_STONE": 25,
  "GRAY_WALL_BANNER": 100,
  "ZOMBIE_WALL_HEAD": 500,
  "VOID_AIR": 1,
  "BONE": 10,
  "GUARDIAN_SPAWN_EGG": 1000,
  "JUNGLE_PLANKS": 10,
  "COBWEB": 15,
  "PORKCHOP": 5,
  "BRAIN_CORAL_BLOCK": 5,
  "HORN_CORAL_WALL_FAN": 5,
  "MAGENTA_WALL_BANNER": 100,
  "POISONOUS_POTATO": 8,
  "SPIDER_SPAWN_EGG": 1000,
  "MUSIC_DISC_BLOCKS": 100,
  "POTTED_DEAD_BUSH": 5,
  "POTTED_AZURE_BLUET": 5,
  "RED_MUSHROOM": 45,
  "CHORUS_FRUIT": 100,
  "MELON_SLICE": 5,
  "STRING": 5,
  "GLASS": 10,
  "BIRCH_SAPLING": 10,
  "MUSIC_DISC_CHIRP": 100,
  "BAT_SPAWN_EGG": 1000,
  "MUSIC_DISC_CAT": 100,
  "ROSE_RED": 3,
  "DRAGON_WALL_HEAD": 1100,
  "WITHER_SKELETON_SPAWN_EGG": 1000,
  "CHAIN_COMMAND_BLOCK": 1000000,
  "GOLDEN_HORSE_ARMOR": 400,
  "WALL_TORCH": 1,
  "CACTUS": 10,
  "SPRUCE_LEAVES": 3,
  "PRISMARINE_SHARD": 80,
  "SLIME_BALL": 20,
  "LIGHT_BLUE_SHULKER_BOX": 75,
  "BEETROOT_SEEDS": 5,
  "POTATOES": 3,
  "RABBIT_FOOT": 10,
  "MELON_SEEDS": 3,
  "SALMON": 5,
  "DEAD_TUBE_CORAL": 5,
  "ORANGE_GLAZED_TERRACOTTA": 15,
  "MELON_STEM": 10,
  "PINK_TULIP": 3,
  "DEAD_TUBE_CORAL_BLOCK": 5,
  "LIME_WALL_BANNER": 100,
  "MILK_BUCKET": 5,
  "PINK_GLAZED_TERRACOTTA": 15,
  "POTTED_DANDELION": 5,
  "BLUE_SHULKER_BOX": 75,
  "HORN_CORAL_FAN": 10,
  "WITHER_SKELETON_SKULL": 1000,
  "BRAIN_CORAL": 10,
  "WHEAT_SEEDS": 1,
  "EVOKER_SPAWN_EGG": 2000,
  "PARROT_SPAWN_EGG": 5000,
  "GRAVEL": 10,
  "OAK_LEAVES": 2,
  "DEAD_BUBBLE_CORAL_WALL_FAN": 2,
  "MUSIC_DISC_WAIT": 500,
  "FILLED_MAP": 1,
  "FROSTED_ICE": 15,
  "CHAINMAIL_CHESTPLATE": 100,
  "SPRUCE_BUTTON": 1,
  "STRAY_SPAWN_EGG": 1000,
  "BLAZE_POWDER": 80,
  "GHAST_SPAWN_EGG": 1000,
  "DRAGON_HEAD": 5000,
  "SMOOTH_RED_SANDSTONE": 20,
  "HUSK_SPAWN_EGG": 1000,
  "STRIPPED_ACACIA_LOG": 34,
  "DIAMOND_HORSE_ARMOR": 1000,
  "EMERALD": 500,
  "LILAC": 2,
  "PEONY": 2,
  "LAVA_BUCKET": 15,
  "WATER_BUCKET": 12,
  "BROWN_MUSHROOM": 8,
  "POTTED_JUNGLE_SAPLING": 12,
  "GOLD_ORE": 20,
  "SPRUCE_PLANKS": 6,
  "STRIPPED_BIRCH_LOG": 34,
  "RED_SHULKER_BOX": 75,
  "DEAD_BRAIN_CORAL": 2,
  "GRASS_BLOCK": 1,
  "RED_MUSHROOM_BLOCK": 25,
  "YELLOW_SHULKER_BOX": 75,
  "DARK_OAK_PLANKS": 8,
  "CHAINMAIL_HELMET": 100,
  "BIRCH_LEAVES": 1,
  "CHICKEN": 8,
  "BUBBLE_CORAL": 2,
  "CYAN_CONCRETE": 8,
  "OAK_LOG": 24,
  "SKELETON_SKULL": 100,
  "DEBUG_STICK": 1,
  "VINDICATOR_SPAWN_EGG": 1000,
  "TUBE_CORAL_BLOCK": 5,
  "POTTED_DARK_OAK_SAPLING": 10,
  "GHAST_TEAR": 500,
  "NETHER_WART": 10,
  "POTTED_ORANGE_TULIP": 10,
  "BARRIER": 1000000,
  "BLACK_GLAZED_TERRACOTTA": 15,
  "BLAZE_SPAWN_EGG": 1000,
  "LLAMA_SPAWN_EGG": 1000,
  "DROWNED_SPAWN_EGG": 1000,
  "RED_TULIP": 3,
  "BROWN_WALL_BANNER": 100,
  "BLACK_CONCRETE": 8,
  "STONE": 1,
  "SPAWNER": 1,
  "MOVING_PISTON": 1,
  "CARROTS": 3,
  "FERN": 10,
  "VILLAGER_SPAWN_EGG": 1000,
  "GREEN_WALL_BANNER": 100,
  "STRIPPED_BIRCH_WOOD": 34,
  "DEAD_HORN_CORAL_FAN": 3,
  "DEAD_BRAIN_CORAL_BLOCK": 3,
  "COOKED_COD": 10,
  "LIME_CONCRETE": 8,
  "INFESTED_CHISELED_STONE_BRICKS": 50,
  "GREEN_SHULKER_BOX": 75,
  "DEAD_TUBE_CORAL_FAN": 8,
  "ENCHANTED_BOOK": 1,
  "LIGHT_GRAY_SHULKER_BOX": 75,
  "HORN_CORAL": 5,
  "LIGHT_GRAY_DYE": 2,
  "PURPLE_WALL_BANNER": 100,
  "PUFFERFISH_SPAWN_EGG": 1000,
  "PINK_SHULKER_BOX": 75,
  "REDSTONE": 36,
  "ACACIA_LOG": 24,
  "DARK_OAK_LEAVES": 1,
  "POTTED_POPPY": 3,
  "GOLD_INGOT": 125,
  "APPLE": 25,
  "TROPICAL_FISH_BUCKET": 60,
  "END_PORTAL_FRAME": 10,
  "DRAGON_EGG": 8000,
  "SMOOTH_STONE": 2,
  "TRIPWIRE": 7,
  "WOLF_SPAWN_EGG": 1000,
  "BROWN_SHULKER_BOX": 75,
  "WITHER_SKELETON_WALL_SKULL": 1000,
  "ZOMBIE_HEAD": 1000,
  "DARK_OAK_BUTTON": 1,
  "REPEATING_COMMAND_BLOCK": 1,
  "DONKEY_SPAWN_EGG": 1000,
  "MUSIC_DISC_FAR": 1000,
  "POTION": 1,
  "SALMON_SPAWN_EGG": 1000,
  "REDSTONE_WIRE": 1,
  "LARGE_FERN": 8,
  "WHITE_CONCRETE": 8,
  "PINK_DYE": 3,
  "STRIPPED_SPRUCE_LOG": 34,
  "CHIPPED_ANVIL": 30,
  "AZURE_BLUET": 1,
  "CHARCOAL": 25,
  "SPIDER_EYE": 15,
  "CHICKEN_SPAWN_EGG": 1000,
  "INFESTED_COBBLESTONE": 10,
  "COAL_ORE": 24,
  "MUSIC_DISC_11": 1000,
  "PRISMARINE_CRYSTALS": 500,
  "ENCHANTED_GOLDEN_APPLE": 80,
  "MUSIC_DISC_MALL": 1000,
  "POLAR_BEAR_SPAWN_EGG": 1000,
  "CYAN_SHULKER_BOX": 75,
  "SNOWBALL": 6,
  "ALLIUM": 2,
  "DEAD_HORN_CORAL_WALL_FAN": 5,
  "FIRE": 80,
  "COOKED_BEEF": 35,
  "BLACK_SHULKER_BOX": 75,
  "MYCELIUM": 75,
  "ATTACHED_PUMPKIN_STEM": 15,
  "POTTED_BIRCH_SAPLING": 12,
  "SKELETON_HORSE_SPAWN_EGG": 1000,
  "CHAINMAIL_LEGGINGS": 150,
  "HORSE_SPAWN_EGG": 1000,
  "SKELETON_WALL_SKULL": 100,
  "COOKED_SALMON": 30,
  "BUBBLE_COLUMN": 10,
  "OXEYE_DAISY": 3,
  "POTTED_ALLIUM": 4,
  "POPPY": 3,
  "CREEPER_WALL_HEAD": 60,
  "REDSTONE_ORE": 55,
  "COCOA": 37,
  "CAVE_SPIDER_SPAWN_EGG": 1000,
  "PUFFERFISH_BUCKET": 500,
  "NETHER_BRICK": 45,
  "WHITE_WALL_BANNER": 100,
  "PHANTOM_MEMBRANE": 100,
  "SUNFLOWER": 3,
  "POTTED_PINK_TULIP": 3,
  "GRASS_PATH": 15,
  "GRAY_SHULKER_BOX": 75,
  "FIRE_CORAL_WALL_FAN": 5,
  "ENDERMITE_SPAWN_EGG": 1000,
  "END_GATEWAY": 80,
  "GREEN_CONCRETE": 8,
  "ELDER_GUARDIAN_SPAWN_EGG": 1000,
  "DANDELION_YELLOW": 3,
  "COCOA_BEANS": 85,
  "PLAYER_WALL_HEAD": 1,
  "WATER": 1000000,
  "FEATHER": 70,
  "YELLOW_WALL_BANNER": 100,
  "DRIED_KELP": 12,
  "EGG": 25,
  "ROSE_BUSH": 3,
  "POTATO": 74,
  "ORANGE_CONCRETE": 8,
  "TALL_SEAGRASS": 1,
  "STRUCTURE_BLOCK": 1,
  "IRON_ORE": 50,
  "LIGHT_GRAY_WALL_BANNER": 100,
  "SPRUCE_SAPLING": 12,
  "SPONGE": 48,
  "CRACKED_STONE_BRICKS": 25,
  "LIME_SHULKER_BOX": 75,
  "STRIPPED_JUNGLE_LOG": 34,
  "FARMLAND": 15,
  "STRIPPED_JUNGLE_WOOD": 34,
  "POTTED_ACACIA_SAPLING": 1,
  "ICE": 18,
  "TURTLE_SPAWN_EGG": 100,
  "SUGAR_CANE": 23,
  "TURTLE_EGG": 500,
  "JUNGLE_LOG": 24,
  "POTTED_SPRUCE_SAPLING": 12,
  "PURPLE_SHULKER_BOX": 75,
  "POTTED_BROWN_MUSHROOM": 15,
  "PURPLE_GLAZED_TERRACOTTA": 15,
  "ROTTEN_FLESH": 8,
  "DEAD_FIRE_CORAL_FAN": 5,
  "DEAD_BUSH": 18,
  "SLIME_SPAWN_EGG": 1000,
  "POTTED_CACTUS": 75,
  "BLUE_GLAZED_TERRACOTTA": 15,
  "COD": 26,
  "DOLPHIN_SPAWN_EGG": 1000,
  "ZOMBIE_VILLAGER_SPAWN_EGG": 1000,
  "SHULKER_SPAWN_EGG": 1000,
  "DEAD_BRAIN_CORAL_WALL_FAN": 3,
  "BUBBLE_CORAL_FAN": 3,
  "LIGHT_BLUE_GLAZED_TERRACOTTA": 15,
  "COAL": 24,
  "ATTACHED_MELON_STEM": 1,
  "MUSHROOM_STEM": 85,
  "TUBE_CORAL": 55,
  "FIRE_CORAL_FAN": 55,
  "REDSTONE_WALL_TORCH": 10,
  "INK_SAC": 41,
  "EXPERIENCE_BOTTLE": 2500,
  "DRAGON_BREATH": 1500,
  "MUSIC_DISC_STAL":1000 ,
  "ACACIA_SAPLING": 12,
  "DAMAGED_ANVIL": 30,
  "PUFFERFISH": 25,
  "SMOOTH_SANDSTONE": 10,
  "CARVED_PUMPKIN": 5,
  "WITCH_SPAWN_EGG": 1000,
  "TERRACOTTA": 15,
  "COOKED_MUTTON": 25,
  "BUBBLE_CORAL_BLOCK": 10,
  "SMOOTH_QUARTZ": 100,
  "DEAD_HORN_CORAL": 5,
  "SADDLE": 800,
  "FIRE_CORAL": 100,
  "CHORUS_FLOWER": 45,
  "ZOMBIE_HORSE_SPAWN_EGG": 1000,
  "OAK_BUTTON": 1,
  "INFESTED_MOSSY_STONE_BRICKS": 1,
  "BRICK": 76,
  "NAUTILUS_SHELL": 1000,
  "KNOWLEDGE_BOOK": 1,
  "MAGENTA_SHULKER_BOX": 75,
  "TOTEM_OF_UNDYING": 5000,
  "INFESTED_CRACKED_STONE_BRICKS": 1,
  "NETHER_QUARTZ_ORE": 13,
  "CLAY_BALL": 50,
  "MOOSHROOM_SPAWN_EGG": 1000,
  "WRITTEN_BOOK": 1,
  "DEAD_FIRE_CORAL": 5,
  "SALMON_BUCKET": 50,
  "STRIPPED_OAK_WOOD": 34,
  "SPLASH_POTION": 10,
  "DEAD_FIRE_CORAL_WALL_FAN": 1,
  "RED_CONCRETE": 8,
  "BLUE_CONCRETE": 8,
  "COOKED_CHICKEN": 25,
  "DEAD_BUBBLE_CORAL_FAN": 5,
  "IRON_NUGGET": 2,
  "POTTED_WHITE_TULIP": 1,
  "NETHER_STAR": 5000,
  "PODZOL": 35,
  "CHAINMAIL_BOOTS": 100,
  "BAKED_POTATO": 3,
  "POTTED_BLUE_ORCHID": 2,
  "MAGMA_CUBE_SPAWN_EGG": 1000,
  "STRIPPED_OAK_LOG": 34,
  "JUNGLE_LEAVES": 1,
  "WALL_SIGN": 1,
  "WHITE_TULIP": 1,
  "ENDER_PEARL": 400,
  "SPRUCE_LOG": 24,
  "MUSIC_DISC_13": 200,
  "JUNGLE_BUTTON": 1,
  "FIREWORK_ROCKET": 50,
  "ORANGE_TULIP": 1,
  "LIGHT_GRAY_CONCRETE": 8,
  "ORANGE_SHULKER_BOX": 75,
  "PIG_SPAWN_EGG": 1000,
  "POTTED_FERN": 3,
  "IRON_HORSE_ARMOR": 1000,
  "COOKED_RABBIT": 12,
  "SCUTE": 12,
  "CACTUS_GREEN": 35,
  "OBSIDIAN": 54,
  "MUTTON": 15,
  "SOUL_SAND": 45,
  "END_PORTAL": 13,
  "BROWN_CONCRETE": 8,
  "YELLOW_CONCRETE": 8,
  "FLINT": 28,
  "NAME_TAG": 250,
  "BROWN_GLAZED_TERRACOTTA": 15,
  "OAK_SAPLING": 12,
  "VINE": 12,
  "GRAY_CONCRETE": 8,
  "HORN_CORAL_BLOCK": 35,
  "TUBE_CORAL_FAN": 5,
  "STRIPPED_SPRUCE_WOOD": 34,
  "COD_BUCKET": 80,
  "ACACIA_LEAVES": 1,
  "SKELETON_SPAWN_EGG": 100,
  "BIRCH_PLANKS": 6,
  "COD_SPAWN_EGG": 1000,
  "GUNPOWDER": 87,
  "TROPICAL_FISH_SPAWN_EGG": 1000,
  "STRIPPED_ACACIA_WOOD": 34,
  "BROWN_MUSHROOM_BLOCK": 85,
  "PURPLE_CONCRETE": 8,
  "DEAD_BUBBLE_CORAL": 5,
  "TRIDENT": 10000,
  "WET_SPONGE": 15,
  "CHORUS_PLANT": 72,
  "STONE_BUTTON": 1,
  "NETHERRACK": 25,
  "DEAD_BUBBLE_CORAL_BLOCK": 1,
  "ZOMBIE_SPAWN_EGG": 1000,
  "WHEAT": 10,
  "DEAD_FIRE_CORAL_BLOCK": 2,
  "SEA_PICKLE": 38,
  "PUMPKIN_STEM": 10,
  "BLAZE_ROD": 375,
  "BUBBLE_CORAL_WALL_FAN": 5,
  "PISTON_HEAD": 75,
  "RABBIT_HIDE": 800,
  "DEAD_HORN_CORAL_BLOCK": 5,
  "COMMAND_BLOCK": 1000000,
  "MUSIC_DISC_MELLOHI": 1000,
  "GRASS": 1,
  "RED_SAND": 5,
  "ACACIA_PLANKS": 6,
  "DEAD_BRAIN_CORAL_FAN": 6,
  "DARK_OAK_LOG": 24,
  "WHITE_SHULKER_BOX": 75,
  "BLUE_ORCHID": 12,
  "TUBE_CORAL_WALL_FAN": 5,
  "HEART_OF_THE_SEA": 20000,
  "SAND": 5,
  "SHEEP_SPAWN_EGG": 1000,
  "BEEF": 22,
  "FIREWORK_STAR": 115,
  "CARROT": 20,
  "LAPIS_ORE": 10,
  "ACACIA_BUTTON": 1,
  "RED_WALL_BANNER": 100,
  "BRAIN_CORAL_FAN": 2,
  "COBBLESTONE": 1,
  "QUARTZ": 13,
  "DIAMOND_ORE": 120,
  "MAGENTA_DYE": 3,
  "BEETROOTS": 15,
  "GLOWSTONE_DUST": 10,
  "GREEN_GLAZED_TERRACOTTA": 15,
  "SQUID_SPAWN_EGG": 1000,
  "DANDELION": 3,
  "LINGERING_POTION": 2,
  "DEAD_TUBE_CORAL_WALL_FAN": 3,
  "COW_SPAWN_EGG": 1000,
  "LAVA": 1,
  "DIRT": 1,
  "CREEPER_HEAD": 1000,
  "INFESTED_STONE": 10,
  "BLUE_WALL_BANNER": 100,
  "PUMPKIN": 5,
  "RABBIT": 13,
  "BEDROCK": 1000000,
  "VEX_SPAWN_EGG": 1000,
  "SUGAR": 24,
  "PINK_CONCRETE": 8,
  "BONE_MEAL": 25,
  "STRUCTURE_VOID": 1,
  "OCELOT_SPAWN_EGG": 1000,
  "SILVERFISH_SPAWN_EGG": 1000,
  "POPPED_CHORUS_FRUIT": 18,
  "MAGENTA_GLAZED_TERRACOTTA": 15,
  "BEETROOT": 15,
  "LAPIS_LAZULI": 13,
  "STRIPPED_DARK_OAK_WOOD": 34,
  "MULE_SPAWN_EGG": 1000,
  "BRAIN_CORAL_WALL_FAN": 2,
  "COOKED_PORKCHOP": 22,
  "YELLOW_GLAZED_TERRACOTTA": 15,
  "MAGENTA_CONCRETE": 8,
  "KELP_PLANT": 15,
  "MUSIC_DISC_STRAD": 1000,
  "BLACK_WALL_BANNER": 100,
  "KELP": 8,
  "SEAGRASS": 6,
  "CAVE_AIR": 88,
  "CREEPER_SPAWN_EGG": 2000,
  "LIGHT_BLUE_WALL_BANNER": 100,
  "LIGHT_BLUE_CONCRETE": 8,
  "BIRCH_BUTTON": 1,
  "ZOMBIE_PIGMAN_SPAWN_EGG": 1000,
  "ELYTRA": 4000,
  "ORANGE_WALL_BANNER": 100,
  "POTTED_RED_MUSHROOM": 8,
  "TROPICAL_FISH": 55,
  "FIRE_CORAL_BLOCK": 3,
  "PETRIFIED_OAK_SLAB": 22,
  "STRIPPED_DARK_OAK_LOG": 34,
  "POTTED_OXEYE_DAISY": 3,
  "INFESTED_STONE_BRICKS": 13,
  "POTTED_OAK_SAPLING": 12,
  "COMMAND_BLOCK_MINECART": 1000000,
  "PINK_WALL_BANNER": 100,
  "CYAN_WALL_BANNER": 100
}
