com\gitlab\blockstack\BlockStackFurniture\commands\CommandHandler.class
com\gitlab\blockstack\BlockStackFurniture\commands\AdminCommandHandler.class
com\gitlab\blockstack\BlockStackFurniture\listeners\CRusticWalllampLarge.class
com\gitlab\blockstack\BlockStackFurniture\listeners\CRusticFireplace.class
com\gitlab\blockstack\BlockStackFurniture\BlockStackFurniture.class
com\gitlab\blockstack\BlockStackFurniture\listeners\CRusticWalllampLarge$1.class
